{
  "test": "Format: \"PROFESSIONAL: NEUTRAL,UNCERTAIN\".",
  "collectionId": "http://tun.fi/HR.407",
  "processSuccess": true,
  "editors": [
    "http://tun.fi/MA.5"
  ],
  "publicDocument": {
    "gatherings": [
      {
        "country": "FI",
        "agents": [
          "Seppä P."
        ],
        "units": [
          {
            "sex": [
              "FEMALE"
            ],
            "lifeStage": [
              "ADULT"
            ],
            "det": "von Bonsdorff",
            "taxonName": "Apamea crenata",
            "individualCount": 1,
            "recordBasis": [
              "PRESERVED_SPECIMEN"
            ],
            "facts": [
              {
                "fact": "http://tun.fi/MY.lifeStage",
                "value": "http://tun.fi/MY.lifeStageAdult"
              },
              {
                "fact": "http://tun.fi/MY.sex",
                "value": "http://tun.fi/MY.sexF"
              },
              {
                "fact": "http://tun.fi/MY.count",
                "value": "1"
              },
              {
                "fact": "http://tun.fi/MY.recordBasis",
                "value": "http://tun.fi/MY.recordBasisPreservedSpecimen"
              }
            ]
          }
        ],
        "higherGeography": "Europe",
        "municipality": "Turku",
        "biogeographicalProvince": "Varsinais-Suomi",
        "facts": [
          {
            "fact": "http://tun.fi/MY.country",
            "value": "FI"
          },
          {
            "fact": "http://tun.fi/MY.biologicalProvince",
            "value": "Varsinais-Suomi"
          },
          {
            "fact": "http://tun.fi/MY.leg",
            "value": "Seppälä, J."
          },
          {
            "fact": "http://tun.fi/MY.higherGeography",
            "value": "Europe"
          },
          {
            "fact": "http://tun.fi/MY.county",
            "value": "Turku"
          }
        ]
      }
    ],
    "keywords": [
      "http://tun.fi/GX.270",
      "http://tun.fi/GX.643"
    ],
    "notes": "previous collection owner; historiallinen museo",
    "facts": [
      {
        "fact": "http://tun.fi/MZ.editor",
        "value": "http://tun.fi/MA.88"
      },
      {
        "fact": "http://tun.fi/MY.documentLocation",
        "value": "In collection; Cabinet: Noctuidae; Box: 10"
      },
      {
        "fact": "http://tun.fi/MY.datatype",
        "value": "zoospecimen"
      },
      {
        "fact": "http://tun.fi/MZ.dateEdited",
        "value": "2013-11-01T08:11:30+0200"
      },
      {
        "fact": "http://tun.fi/MY.datasetID",
        "value": "http://tun.fi/GX.270"
      },
      {
        "fact": "http://tun.fi/MY.datasetID",
        "value": "http://tun.fi/GX.643"
      },
      {
        "fact": "http://tun.fi/MZ.owner",
        "value": "http://tun.fi/MOS.1007"
      },
      {
        "fact": "http://tun.fi/MZ.dateCreated",
        "value": "2013-11-01T08:11:30+0200"
      },
      {
        "fact": "http://tun.fi/MY.language",
        "value": "finnish"
      },
      {
        "fact": "http://tun.fi/MY.notes",
        "value": "previous collection owner; historiallinen museo"
      },
      {
        "fact": "http://tun.fi/MY.inMustikka",
        "value": "true"
      },
      {
        "fact": "http://tun.fi/MY.collectionID",
        "value": "http://tun.fi/HR.407"
      },
      {
        "fact": "http://tun.fi/MY.preservation",
        "value": "http://tun.fi/MY.preservationPinned"
      }
    ]
  },
  "documentId": "http://tun.fi/JA.1",
  "entryDate": "2013-11-01T08:11:30+0200",
  "protectedDocument": {
    
  },
  "processTime": 1446121746
}